<?xml version="1.0" encoding="UTF-8" standalone="no"?>
<!-- Created with Inkscape (http://www.inkscape.org/) -->

<svg
   xmlns:dc="http://purl.org/dc/elements/1.1/"
   xmlns:cc="http://creativecommons.org/ns#"
   xmlns:rdf="http://www.w3.org/1999/02/22-rdf-syntax-ns#"
   xmlns:svg="http://www.w3.org/2000/svg"
   xmlns="http://www.w3.org/2000/svg"
   xmlns:xlink="http://www.w3.org/1999/xlink"
   xmlns:sodipodi="http://sodipodi.sourceforge.net/DTD/sodipodi-0.dtd"
   xmlns:inkscape="http://www.inkscape.org/namespaces/inkscape"
   width="1000"
   height="1000"
   viewBox="0 0 999.99999 999.99999"
   id="svg2"
   version="1.1"
   inkscape:version="0.91 r13725"
   sodipodi:docname="uv.svg">
  <defs
     id="defs4" />
  <sodipodi:namedview
     id="base"
     pagecolor="#ffffff"
     bordercolor="#666666"
     borderopacity="1.0"
     inkscape:pageopacity="0.0"
     inkscape:pageshadow="2"
     inkscape:zoom="0.4075"
     inkscape:cx="612.48185"
     inkscape:cy="-1685.022"
     inkscape:document-units="px"
     inkscape:current-layer="g4223-6"
     showgrid="true"
     units="px"
     inkscape:window-width="1920"
     inkscape:window-height="1005"
     inkscape:window-x="0"
     inkscape:window-y="29"
     inkscape:window-maximized="1"
     gridtolerance="10">
    <inkscape:grid
       type="xygrid"
       id="grid4152"
       color="#b7b7b7"
       opacity="0.1254902"
       empcolor="#767676"
       empopacity="0.25098039" />
  </sodipodi:namedview>
  <metadata
     id="metadata7">
    <rdf:RDF>
      <cc:Work
         rdf:about="">
        <dc:format>image/svg+xml</dc:format>
        <dc:type
           rdf:resource="http://purl.org/dc/dcmitype/StillImage" />
        <dc:title></dc:title>
      </cc:Work>
    </rdf:RDF>
  </metadata>
  <g
     inkscape:label="Layer 1"
     inkscape:groupmode="layer"
     id="layer1"
     transform="translate(0,-52.362271)">
    <g
       transform="translate(0,-99.999973)"
       id="g4223-6">
      <g
         id="g4420"
         inkscape:tile-cx="500"
         inkscape:tile-cy="1299.9999"
         inkscape:tile-w="1000"
         inkscape:tile-h="999.99986"
         inkscape:tile-x0="0"
         inkscape:tile-y0="800">
        <g
           inkscape:export-ydpi="200"
           inkscape:export-xdpi="200"
           inkscape:tile-y0="800"
           inkscape:tile-x0="0"
           inkscape:tile-h="199.99997"
           inkscape:tile-w="1000"
           inkscape:tile-cy="899.99999"
           inkscape:tile-cx="500"
           id="g4301">
          <g
             style=""
             transform="translate(0,99.999973)"
             id="g4223">
            <g
               inkscape:tile-y0="899.99997"
               inkscape:tile-x0="0"
               inkscape:tile-h="100"
               inkscape:tile-w="200"
               inkscape:tile-cy="949.99997"
               inkscape:tile-cx="100"
               id="g4159">
              <rect
                 style="fill:#b3b3b3;fill-opacity:1;fill-rule:nonzero;stroke:none;stroke-width:20;stroke-linecap:round;stroke-linejoin:round;stroke-miterlimit:4;stroke-dasharray:none;stroke-opacity:1"
                 id="rect4134"
                 width="100"
                 height="100"
                 x="0"
                 y="952.36224" />
              <rect
                 style="fill:#333333;fill-opacity:1;fill-rule:nonzero;stroke:none;stroke-width:20;stroke-linecap:round;stroke-linejoin:round;stroke-miterlimit:4;stroke-dasharray:none;stroke-opacity:1"
                 id="rect4134-3"
                 width="100"
                 height="100"
                 x="100"
                 y="952.36224" />
            </g>
            <use
               id="use4213"
               xlink:href="#g4159"
               inkscape:tiled-clone-of="#g4159"
               y="0"
               x="0" />
            <use
               id="use4215"
               transform="translate(200,0)"
               xlink:href="#g4159"
               inkscape:tiled-clone-of="#g4159"
               y="0"
               x="0" />
            <use
               id="use4217"
               transform="translate(400,0)"
               xlink:href="#g4159"
               inkscape:tiled-clone-of="#g4159"
               y="0"
               x="0" />
            <use
               id="use4219"
               transform="translate(600,0)"
               xlink:href="#g4159"
               inkscape:tiled-clone-of="#g4159"
               y="0"
               x="0" />
            <use
               id="use4221"
               transform="translate(800,0)"
               xlink:href="#g4159"
               inkscape:tiled-clone-of="#g4159"
               y="0"
               x="0" />
          </g>
          <g
             inkscape:tile-y0="899.99997"
             inkscape:tile-x0="0"
             inkscape:tile-h="100"
             inkscape:tile-w="200"
             inkscape:tile-cy="949.99997"
             inkscape:tile-cx="100"
             id="g4159-7">
            <rect
               style="fill:#333333;fill-opacity:1;fill-rule:nonzero;stroke:none;stroke-width:20;stroke-linecap:round;stroke-linejoin:round;stroke-miterlimit:4;stroke-dasharray:none;stroke-opacity:1"
               id="rect4134-5"
               width="100"
               height="100"
               x="0"
               y="952.36224" />
            <rect
               style="fill:#b3b3b3;fill-opacity:1;fill-rule:nonzero;stroke:none;stroke-width:20;stroke-linecap:round;stroke-linejoin:round;stroke-miterlimit:4;stroke-dasharray:none;stroke-opacity:1"
               id="rect4134-3-3"
               width="100"
               height="100"
               x="100"
               y="952.36224" />
          </g>
          <use
             height="100%"
             width="100%"
             id="use4213-5"
             xlink:href="#g4159-7"
             inkscape:tiled-clone-of="#g4159-7"
             y="0"
             x="0"
             style="fill:#999999" />
          <use
             height="100%"
             width="100%"
             id="use4215-6"
             transform="translate(200,0)"
             xlink:href="#g4159-7"
             inkscape:tiled-clone-of="#g4159-7"
             y="0"
             x="0" />
          <use
             height="100%"
             width="100%"
             id="use4217-2"
             transform="translate(400,0)"
             xlink:href="#g4159-7"
             inkscape:tiled-clone-of="#g4159-7"
             y="0"
             x="0" />
          <use
             height="100%"
             width="100%"
             id="use4219-9"
             transform="translate(600,0)"
             xlink:href="#g4159-7"
             inkscape:tiled-clone-of="#g4159-7"
             y="0"
             x="0" />
          <use
             height="100%"
             width="100%"
             id="use4221-1"
             transform="translate(800,0)"
             xlink:href="#g4159-7"
             inkscape:tiled-clone-of="#g4159-7"
             y="0"
             x="0" />
        </g>
        <use
           inkscape:export-ydpi="200"
           inkscape:export-xdpi="200"
           id="use4410"
           xlink:href="#g4301"
           inkscape:tiled-clone-of="#g4301"
           y="0"
           x="0" />
        <use
           inkscape:export-ydpi="200"
           inkscape:export-xdpi="200"
           id="use4412"
           transform="translate(0,199.99997)"
           xlink:href="#g4301"
           inkscape:tiled-clone-of="#g4301"
           y="0"
           x="0" />
        <use
           inkscape:export-ydpi="200"
           inkscape:export-xdpi="200"
           id="use4414"
           transform="translate(0,399.99995)"
           xlink:href="#g4301"
           inkscape:tiled-clone-of="#g4301"
           y="0"
           x="0" />
        <use
           inkscape:export-ydpi="200"
           inkscape:export-xdpi="200"
           id="use4416"
           transform="translate(0,599.99992)"
           xlink:href="#g4301"
           inkscape:tiled-clone-of="#g4301"
           y="0"
           x="0" />
        <use
           inkscape:export-ydpi="200"
           inkscape:export-xdpi="200"
           id="use4418"
           transform="translate(0,799.99989)"
           xlink:href="#g4301"
           inkscape:tiled-clone-of="#g4301"
           y="0"
           x="0" />
      </g>
      <use
         x="0"
         y="0"
         inkscape:tiled-clone-of="#g4420"
         xlink:href="#g4420"
         id="use4445" />
      <use
         x="0"
         y="0"
         inkscape:tiled-clone-of="#g4420"
         xlink:href="#g4420"
         transform="translate(0,999.99986)"
         id="use4447" />
      <use
         x="0"
         y="0"
         inkscape:tiled-clone-of="#g4420"
         xlink:href="#g4420"
         transform="translate(1000,0)"
         id="use4449" />
      <use
         x="0"
         y="0"
         inkscape:tiled-clone-of="#g4420"
         xlink:href="#g4420"
         transform="translate(1000,999.99986)"
         id="use4451" />
    </g>
  </g>
</svg>
